%YAML 1.1
%TAG !u! tag:unity3d.com,2011:
--- !u!1 &100000
GameObject:
  m_ObjectHideFlags: 0
  m_CorrespondingSourceObject: {fileID: 0}
  m_PrefabInternal: {fileID: 100100000}
  serializedVersion: 6
  m_Component:
  - component: {fileID: 400000}
  - component: {fileID: 11400000}
  - component: {fileID: 2300000}
  - component: {fileID: 33272802003939720}
  - component: {fileID: 58486281964413070}
  - component: {fileID: 50967733251060182}
  - component: {fileID: 60900849826980414}
  m_Layer: 0
  m_Name: Circle
  m_TagString: Untagged
  m_Icon: {fileID: 0}
  m_NavMeshLayer: 0
  m_StaticEditorFlags: 0
  m_IsActive: 1
--- !u!1002 &100001
EditorExtensionImpl:
  serializedVersion: 6
--- !u!4 &400000
Transform:
  m_ObjectHideFlags: 1
  m_CorrespondingSourceObject: {fileID: 0}
  m_PrefabInternal: {fileID: 100100000}
  m_GameObject: {fileID: 100000}
  m_LocalRotation: {x: 0, y: 0, z: 0, w: 1}
  m_LocalPosition: {x: -25.717, y: -6.6261673, z: 0}
  m_LocalScale: {x: 0.85935503, y: 0.85935503, z: 0.85935503}
  m_Children: []
  m_Father: {fileID: 0}
  m_RootOrder: 0
  m_LocalEulerAnglesHint: {x: 0, y: 0, z: 0}
--- !u!1002 &400001
EditorExtensionImpl:
  serializedVersion: 6
--- !u!23 &2300000
MeshRenderer:
  m_ObjectHideFlags: 1
  m_CorrespondingSourceObject: {fileID: 0}
  m_PrefabInternal: {fileID: 100100000}
  m_GameObject: {fileID: 100000}
  m_Enabled: 1
  m_CastShadows: 1
  m_ReceiveShadows: 1
  m_DynamicOccludee: 1
  m_MotionVectors: 1
  m_LightProbeUsage: 0
  m_ReflectionProbeUsage: 1
  m_RenderingLayerMask: 4294967295
  m_Materials:
  - {fileID: 2100000, guid: b9e0b81f88d9d994dbec43692d08d3c7, type: 2}
  m_StaticBatchInfo:
    firstSubMesh: 0
    subMeshCount: 0
  m_StaticBatchRoot: {fileID: 0}
  m_ProbeAnchor: {fileID: 0}
  m_LightProbeVolumeOverride: {fileID: 0}
  m_ScaleInLightmap: 1
  m_PreserveUVs: 0
  m_IgnoreNormalsForChartDetection: 0
  m_ImportantGI: 0
  m_StitchLightmapSeams: 0
  m_SelectedEditorRenderState: 0
  m_MinimumChartSize: 4
  m_AutoUVMaxDistance: 0.5
  m_AutoUVMaxAngle: 89
  m_LightmapParameters: {fileID: 0}
  m_SortingLayerID: 0
  m_SortingLayer: 0
  m_SortingOrder: 0
--- !u!1002 &2300001
EditorExtensionImpl:
  serializedVersion: 6
--- !u!1002 &3300001
EditorExtensionImpl:
  serializedVersion: 6
--- !u!114 &11400000
MonoBehaviour:
  m_ObjectHideFlags: 1
  m_CorrespondingSourceObject: {fileID: 0}
  m_PrefabInternal: {fileID: 100100000}
  m_GameObject: {fileID: 100000}
  m_Enabled: 1
  m_EditorHideFlags: 0
  m_Script: {fileID: 11500000, guid: 03351eef812632d4ba150c732aaedbf7, type: 3}
  m_Name: 
  m_EditorClassIdentifier: 
  outline: 1
  outlineColor1:
    r: 0
    g: 0.5661765
    b: 0.72794116
    a: 1
  outlineColor2:
    r: 0
    g: 0
    b: 0
    a: 1
  OutlineWidth: 2.1
  outlineTexturingScale: 10
  outlineGradient: 0
  outlineNormalOffset: 0
  corners: 0
  fill: 1
  landscapeBottomDepth: 10
  fillColor1:
    r: 0.928
    g: 0.84546334
    b: 0.22853728
    a: 1
  fillColor2:
    r: 0.2806861
    g: 0.57257676
    b: 0.7835821
    a: 1
  UVMapping1: 0
  UVMapping2: 0
  gradientOffset: {x: 0, y: 0}
  gradientAngle: 323.63663
  gradientScale: 0.03201695
  textureOffset: {x: -5, y: -5}
  textureAngle: 0
  textureScale: 0.1
  textureOffset2: {x: 5, y: 5}
  textureAngle2: 0
  textureScale2: 0.1
  emboss: 0
  embossColor1:
    r: 1
    g: 1
    b: 1
    a: 1
  embossColor2:
    r: 0
    g: 0
    b: 0
    a: 1
  embossAngle: 180
  embossOffset: 0.5
  embossSize: 10
  embossCurveSmoothness: 3
  physics: 4
  createPhysicsInEditor: 0
  createConvexMeshCollider: 0
  physicsMaterial: {fileID: 0}
  physicsMaterial2D: {fileID: 0}
  _vertexDensity: 15
  vertexCount: 60
  optimizedVertexCount: 64
  physicsColliderCount: 32
  LockPhysicsToAppearence: 0
  colliderZDepth: 100
  colliderNormalOffset: 0
  boxColliderDepth: 1
  _boxColliders: []
  lastPhysicsVertsCount: 0
  antiAliasingWidth: 0.57
  landscapeOutlineAlign: 1
  maxBeakLength: 3
  optimize: 0
  optimizeAngle: 5
  showCoordinates: 0
  gridSize: 1
  gridColor:
    r: 1
    g: 1
    b: 1
    a: 0.2
  showGrid: 0
  gridExpansion: 2
  snapToGrid: 1
  snapHandlesToGrid: 1
  showNumberInputs: 1
  style: {fileID: 11400000, guid: 9226b162f144c4d48be6306141d5dac4, type: 2}
  defaultStyleName: 5374796c656e616d65
  styleLocalGradientPositioning: 0
  styleLocalTexturePositioning: 0
  styleLocalEmbossPositioning: 0
  styleLocalAntialiasing: 0
  styleLocalVertexCount: 0
  styleLocalPhysicsColliderCount: 0
  hideHandles: 0
  FlattenZ: 1
  FixOverlaps: 1
  isDirty: 0
  PinUvs: 0
  AutoRefresh: 0
  AutoRefreshDelay: 0.15
  AutoRefreshDelayRandomize: 1
  PerspectiveMode: 0
  CurrentPerspective: 0
  _mFilter: {fileID: 33272802003939720}
  spline:
    precalcNormals:
    - {x: 1, y: -0.000000058208908, z: 0}
    - {x: 0.99408865, y: -0.1085718, z: 0}
    - {x: 0.97663975, y: -0.21488336, z: 0}
    - {x: 0.9483012, y: -0.3173719, z: 0}
    - {x: 0.90988266, y: -0.4148657, z: 0}
    - {x: 0.8622123, y: -0.50654703, z: 0}
    - {x: 0.8060343, y: -0.59186876, z: 0}
    - {x: 0.74195707, y: -0.67044747, z: 0}
    - {x: 0.67044765, y: -0.74195683, z: 0}
    - {x: 0.59186894, y: -0.80603427, z: 0}
    - {x: 0.5065472, y: -0.86221224, z: 0}
    - {x: 0.4148657, y: -0.90988266, z: 0}
    - {x: 0.31737185, y: -0.9483012, z: 0}
    - {x: 0.21488312, y: -0.9766398, z: 0}
    - {x: 0.10857157, y: -0.99408865, z: 0}
    - {x: -0.000000057510398, y: -1, z: -0}
    - {x: -0.108571656, y: -0.99408865, z: -0}
    - {x: -0.21488297, y: -0.9766398, z: -0}
    - {x: -0.31737182, y: -0.94830126, z: -0}
    - {x: -0.4148657, y: -0.90988266, z: -0}
    - {x: -0.5065472, y: -0.86221224, z: -0}
    - {x: -0.59186894, y: -0.80603427, z: -0}
    - {x: -0.6704478, y: -0.7419567, z: -0}
    - {x: -0.7419572, y: -0.67044723, z: -0}
    - {x: -0.8060346, y: -0.59186834, z: -0}
    - {x: -0.86221254, y: -0.50654674, z: -0}
    - {x: -0.9098829, y: -0.4148652, z: -0}
    - {x: -0.9483013, y: -0.31737146, z: -0}
    - {x: -0.97663987, y: -0.21488272, z: -0}
    - {x: -0.99408865, y: -0.10857149, z: -0}
    - {x: -1, y: 0.000000057510398, z: 0}
    - {x: -0.99408865, y: 0.108571395, z: 0}
    - {x: -0.9766398, y: 0.214883, z: 0}
    - {x: -0.9483013, y: 0.31737152, z: 0}
    - {x: -0.9098829, y: 0.4148652, z: 0}
    - {x: -0.86221266, y: 0.5065465, z: 0}
    - {x: -0.80603456, y: 0.59186846, z: 0}
    - {x: -0.74195725, y: 0.6704472, z: 0}
    - {x: -0.6704479, y: 0.7419566, z: 0}
    - {x: -0.59186906, y: 0.8060341, z: 0}
    - {x: -0.50654715, y: 0.86221224, z: 0}
    - {x: -0.41486573, y: 0.90988266, z: 0}
    - {x: -0.31737185, y: 0.9483012, z: 0}
    - {x: -0.21488322, y: 0.97663975, z: 0}
    - {x: -0.10857152, y: 0.99408865, z: 0}
    - {x: -9.313426e-10, y: 1, z: 0}
    - {x: 0.10857161, y: 0.99408865, z: 0}
    - {x: 0.21488349, y: 0.9766397, z: 0}
    - {x: 0.31737217, y: 0.94830114, z: 0}
    - {x: 0.41486588, y: 0.9098826, z: 0}
    - {x: 0.50654733, y: 0.8622122, z: 0}
    - {x: 0.5918693, y: 0.80603397, z: 0}
    - {x: 0.67044795, y: 0.7419566, z: 0}
    - {x: 0.74195725, y: 0.6704472, z: 0}
    - {x: 0.8060345, y: 0.5918685, z: 0}
    - {x: 0.8622126, y: 0.5065466, z: 0}
    - {x: 0.90988284, y: 0.41486531, z: 0}
    - {x: 0.94830126, y: 0.31737167, z: 0}
    - {x: 0.97663975, y: 0.21488318, z: 0}
    - {x: 0.99408865, y: 0.108571544, z: 0}
    - {x: 1, y: -0.00000023190428, z: 0}
    precalcPositions: []
    points:
    - point: {x: 20, y: 0, z: 0}
      inCtrl: {x: -0, y: 10.9999895, z: -0}
      outCtrl: {x: 0, y: -10.9999895, z: 0}
      widthMultiplier: 1
      natural: 1
    - point: {x: -0.0000044390235, y: -19.999998, z: 0}
      inCtrl: {x: 11.000015, y: -0, z: -0}
      outCtrl: {x: -11.000015, y: 0, z: 0}
      widthMultiplier: 1
      natural: 1
    - point: {x: -19.999998, y: 0, z: 0}
      inCtrl: {x: -0, y: -11.000003, z: -0}
      outCtrl: {x: 0, y: 11.000003, z: 0}
      widthMultiplier: 1
      natural: 1
    - point: {x: 0, y: 20, z: 0}
      inCtrl: {x: -11.00002, y: -0, z: -0}
      outCtrl: {x: 11.00002, y: 0, z: 0}
      widthMultiplier: 1
      natural: 1
    PercentPrecalcNormals: 0
    Triangulate: 0
  lowQualityRender: 0
  inverseTriangleDrawOrder: 0
  overLappingVertsShift: 0.01
  CachedFillMaterial: {fileID: 0}
  Cached3DFillMaterial: {fileID: 0}
  Cached3DAAMaterial: {fileID: 0}
  _rageCamera: {fileID: 0}
  DestroyFarseerNow: 0
  ShowTriangleCount: 0
  FarseerPhysicsPointsOnly: 0
  PhysicsIsTrigger: 0
  WorldAaWidth: 0
--- !u!1002 &11400001
EditorExtensionImpl:
  serializedVersion: 6
--- !u!1001 &100100000
Prefab:
  m_ObjectHideFlags: 1
  serializedVersion: 2
  m_Modification:
    m_TransformParent: {fileID: 0}
    m_Modifications: []
    m_RemovedComponents: []
  m_SourcePrefab: {fileID: 0}
  m_RootGameObject: {fileID: 100000}
  m_IsPrefabAsset: 1
--- !u!1002 &100100001
EditorExtensionImpl:
  serializedVersion: 6
--- !u!33 &33272802003939720
MeshFilter:
  m_ObjectHideFlags: 1
  m_CorrespondingSourceObject: {fileID: 0}
  m_PrefabInternal: {fileID: 100100000}
  m_GameObject: {fileID: 100000}
  m_Mesh: {fileID: 0}
--- !u!50 &50967733251060182
Rigidbody2D:
  serializedVersion: 4
  m_ObjectHideFlags: 1
  m_CorrespondingSourceObject: {fileID: 0}
  m_PrefabInternal: {fileID: 100100000}
  m_GameObject: {fileID: 100000}
  m_BodyType: 0
  m_Simulated: 1
  m_UseFullKinematicContacts: 0
  m_UseAutoMass: 0
  m_Mass: 1
  m_LinearDrag: 0
  m_AngularDrag: 0.05
  m_GravityScale: 10
  m_Material: {fileID: 0}
  m_Interpolate: 0
  m_SleepingMode: 1
  m_CollisionDetection: 0
  m_Constraints: 0
--- !u!58 &58486281964413070
CircleCollider2D:
  m_ObjectHideFlags: 1
  m_CorrespondingSourceObject: {fileID: 0}
  m_PrefabInternal: {fileID: 100100000}
  m_GameObject: {fileID: 100000}
  m_Enabled: 1
  m_Density: 1
  m_Material: {fileID: 0}
  m_IsTrigger: 0
  m_UsedByEffector: 0
  m_UsedByComposite: 0
  m_Offset: {x: 0.0000009536743, y: 0.0000009536743}
  serializedVersion: 2
  m_Radius: 20.559998
--- !u!60 &60900849826980414
PolygonCollider2D:
  m_ObjectHideFlags: 1
  m_CorrespondingSourceObject: {fileID: 0}
  m_PrefabInternal: {fileID: 100100000}
  m_GameObject: {fileID: 100000}
  m_Enabled: 1
  m_Density: 1
  m_Material: {fileID: 0}
  m_IsTrigger: 0
  m_UsedByEffector: 0
  m_UsedByComposite: 0
  m_Offset: {x: 0, y: 0}
  m_SpriteTilingProperty:
    border: {x: 0, y: 0, z: 0, w: 0}
    pivot: {x: 0, y: 0}
    oldSize: {x: 0, y: 0}
    newSize: {x: 0, y: 0}
    adaptiveTilingThreshold: 0
    drawMode: 0
    adaptiveTiling: 0
  m_AutoTiling: 0
  m_Points:
    m_Paths:
    - - {x: 20, y: 0}
      - {x: 18.421877, y: -7.76562}
      - {x: 14.125003, y: -14.124995}
      - {x: 7.7656274, y: -18.421871}
      - {x: -0.0000044390235, y: -19.999998}
      - {x: -7.7656355, y: -18.421873}
      - {x: -14.125008, y: -14.125}
      - {x: -18.421875, y: -7.765626}
      - {x: -19.999998, y: 0}
      - {x: -18.421875, y: 7.7656264}
      - {x: -14.125007, y: 14.125001}
      - {x: -7.7656336, y: 18.421875}
      - {x: 0, y: 20}
      - {x: 7.7656336, y: 18.421873}
      - {x: 14.125008, y: 14.124996}
      - {x: 18.421879, y: 7.7656207}
      - {x: 20, y: 0}
