%YAML 1.1
%TAG !u! tag:unity3d.com,2011:
--- !u!1 &100000
GameObject:
  m_ObjectHideFlags: 0
  m_CorrespondingSourceObject: {fileID: 0}
  m_PrefabInternal: {fileID: 100100000}
  serializedVersion: 6
  m_Component:
  - component: {fileID: 400000}
  - component: {fileID: 11400000}
  - component: {fileID: 2300000}
  - component: {fileID: 3300000}
  m_Layer: 0
  m_Name: Triangle
  m_TagString: Untagged
  m_Icon: {fileID: 0}
  m_NavMeshLayer: 0
  m_StaticEditorFlags: 0
  m_IsActive: 1
--- !u!1002 &100001
EditorExtensionImpl:
  serializedVersion: 6
--- !u!4 &400000
Transform:
  m_ObjectHideFlags: 1
  m_CorrespondingSourceObject: {fileID: 0}
  m_PrefabInternal: {fileID: 100100000}
  m_GameObject: {fileID: 100000}
  m_LocalRotation: {x: 0, y: 0, z: 0, w: 1}
  m_LocalPosition: {x: 0, y: 0, z: 0}
  m_LocalScale: {x: 1, y: 1, z: 1}
  m_Children: []
  m_Father: {fileID: 0}
  m_RootOrder: 0
  m_LocalEulerAnglesHint: {x: 0, y: 0, z: 0}
--- !u!1002 &400001
EditorExtensionImpl:
  serializedVersion: 6
--- !u!23 &2300000
MeshRenderer:
  m_ObjectHideFlags: 1
  m_CorrespondingSourceObject: {fileID: 0}
  m_PrefabInternal: {fileID: 100100000}
  m_GameObject: {fileID: 100000}
  m_Enabled: 1
  m_CastShadows: 1
  m_ReceiveShadows: 1
  m_DynamicOccludee: 1
  m_MotionVectors: 1
  m_LightProbeUsage: 0
  m_ReflectionProbeUsage: 1
  m_RenderingLayerMask: 4294967295
  m_Materials:
  - {fileID: 2100000, guid: b9e0b81f88d9d994dbec43692d08d3c7, type: 2}
  m_StaticBatchInfo:
    firstSubMesh: 0
    subMeshCount: 0
  m_StaticBatchRoot: {fileID: 0}
  m_ProbeAnchor: {fileID: 0}
  m_LightProbeVolumeOverride: {fileID: 0}
  m_ScaleInLightmap: 1
  m_PreserveUVs: 0
  m_IgnoreNormalsForChartDetection: 0
  m_ImportantGI: 0
  m_StitchLightmapSeams: 0
  m_SelectedEditorRenderState: 3
  m_MinimumChartSize: 4
  m_AutoUVMaxDistance: 0.5
  m_AutoUVMaxAngle: 89
  m_LightmapParameters: {fileID: 0}
  m_SortingLayerID: 0
  m_SortingLayer: 0
  m_SortingOrder: 0
--- !u!1002 &2300001
EditorExtensionImpl:
  serializedVersion: 6
--- !u!33 &3300000
MeshFilter:
  m_ObjectHideFlags: 1
  m_CorrespondingSourceObject: {fileID: 0}
  m_PrefabInternal: {fileID: 100100000}
  m_GameObject: {fileID: 100000}
  m_Mesh: {fileID: 0}
--- !u!1002 &3300001
EditorExtensionImpl:
  serializedVersion: 6
--- !u!114 &11400000
MonoBehaviour:
  m_ObjectHideFlags: 1
  m_CorrespondingSourceObject: {fileID: 0}
  m_PrefabInternal: {fileID: 100100000}
  m_GameObject: {fileID: 100000}
  m_Enabled: 1
  m_EditorHideFlags: 0
  m_Script: {fileID: 11500000, guid: 03351eef812632d4ba150c732aaedbf7, type: 3}
  m_Name: 
  m_EditorClassIdentifier: 
  outline: 1
  outlineColor1: {r: 0, g: 0, b: 0, a: 1}
  outlineColor2: {r: 0, g: 0, b: 0, a: 1}
  OutlineWidth: 1
  outlineTexturingScale: 10
  outlineGradient: 0
  outlineNormalOffset: 0
  corners: 1
  fill: 1
  landscapeBottomDepth: 10
  fillColor1: {r: 1, g: 1, b: 1, a: 1}
  fillColor2: {r: 0, g: 0, b: 1, a: 1}
  UVMapping1: 0
  UVMapping2: 0
  gradientOffset: {x: 0, y: 0}
  gradientAngle: 0
  gradientScale: 0.1
  textureOffset: {x: -5, y: -5}
  textureAngle: 0
  textureScale: 0.1
  textureOffset2: {x: 5, y: 5}
  textureAngle2: 0
  textureScale2: 0.1
  emboss: 0
  embossColor1: {r: 1, g: 1, b: 1, a: 1}
  embossColor2: {r: 0, g: 0, b: 0, a: 1}
  embossAngle: 180
  embossOffset: 0.5
  embossSize: 10
  embossCurveSmoothness: 3
  physics: 0
  createPhysicsInEditor: 0
  createConvexMeshCollider: 0
  physicsMaterial: {fileID: 0}
  physicsMaterial2D: {fileID: 0}
  _vertexDensity: 1
  vertexCount: 3
  optimizedVertexCount: 64
  physicsColliderCount: 32
  LockPhysicsToAppearence: 0
  colliderZDepth: 100
  colliderNormalOffset: 0
  boxColliderDepth: 1
  _boxColliders: []
  lastPhysicsVertsCount: 0
  antiAliasingWidth: 0.5
  landscapeOutlineAlign: 1
  maxBeakLength: 3
  optimize: 0
  optimizeAngle: 5
  showCoordinates: 0
  gridSize: 2
  gridColor: {r: 1, g: 1, b: 1, a: 0.2}
  showGrid: 1
  gridExpansion: 2
  snapToGrid: 1
  snapHandlesToGrid: 1
  showNumberInputs: 1
  style: {fileID: 0}
  defaultStyleName: 5374796c656e616d65
  styleLocalGradientPositioning: 0
  styleLocalTexturePositioning: 0
  styleLocalEmbossPositioning: 0
  styleLocalAntialiasing: 0
  styleLocalVertexCount: 0
  styleLocalPhysicsColliderCount: 0
  hideHandles: 0
  FlattenZ: 1
  FixOverlaps: 1
  isDirty: 0
  PinUvs: 0
  AutoRefresh: 0
  AutoRefreshDelay: 0.15
  AutoRefreshDelayRandomize: 1
  PerspectiveMode: 0
  CurrentPerspective: 0
  _mFilter: {fileID: 0}
  spline:
    precalcNormals:
    - {x: 0.88914895, y: -0.45761794, z: 0}
    - {x: -0.88914895, y: -0.4576179, z: -0}
    - {x: -0, y: 1, z: 0}
    - {x: 0.88914895, y: -0.45761794, z: 0}
    precalcPositions: []
    points:
    - point: {x: 24, y: -12, z: 0}
      inCtrl: {x: -10.000001, y: 14, z: 0}
      outCtrl: {x: -10.000001, y: 0, z: 0}
      widthMultiplier: 1
      natural: 0
    - point: {x: -24, y: -12, z: 0}
      inCtrl: {x: 10, y: 0, z: 0}
      outCtrl: {x: 10, y: 14, z: 0}
      widthMultiplier: 1
      natural: 0
    - point: {x: 0, y: 24, z: 0}
      inCtrl: {x: -10, y: -16, z: 0}
      outCtrl: {x: 9.999999, y: -16, z: 0}
      widthMultiplier: 1
      natural: 0
    PercentPrecalcNormals: 0
    Triangulate: 0
  lowQualityRender: 0
  inverseTriangleDrawOrder: 0
  overLappingVertsShift: 0.01
  CachedFillMaterial: {fileID: 0}
  Cached3DFillMaterial: {fileID: 0}
  Cached3DAAMaterial: {fileID: 0}
  _rageCamera: {fileID: 0}
  DestroyFarseerNow: 0
  ShowTriangleCount: 0
  FarseerPhysicsPointsOnly: 0
  PhysicsIsTrigger: 0
  WorldAaWidth: 0
--- !u!1002 &11400001
EditorExtensionImpl:
  serializedVersion: 6
--- !u!1001 &100100000
Prefab:
  m_ObjectHideFlags: 1
  serializedVersion: 2
  m_Modification:
    m_TransformParent: {fileID: 0}
    m_Modifications: []
    m_RemovedComponents: []
  m_SourcePrefab: {fileID: 0}
  m_RootGameObject: {fileID: 100000}
  m_IsPrefabAsset: 1
--- !u!1002 &100100001
EditorExtensionImpl:
  serializedVersion: 6
